---
http_interactions:
- request:
    method: get
    uri: https://api.flickr.com/services/rest/?api_key=20657a3ab827685711fa7e910ea9b2eb&format=json&method=flickr.photos.search&nojsoncallback=1&tags=denver,co,skyline,weather&text=denver,co
    body:
      encoding: US-ASCII
      string: ''
    headers:
      User-Agent:
      - Faraday v0.15.4
      Accept-Encoding:
      - gzip;q=1.0,deflate;q=0.6,identity;q=0.3
      Accept:
      - "*/*"
  response:
    status:
      code: 200
      message: OK
    headers:
      Content-Type:
      - application/json
      Transfer-Encoding:
      - chunked
      Connection:
      - keep-alive
      Date:
      - Wed, 31 Jul 2019 16:11:56 GMT
      Server:
      - Apache/2.4.39 (Ubuntu)
      X-Content-Type-Options:
      - nosniff
      X-Frame-Options:
      - SAMEORIGIN
      X-Cache:
      - Miss from cloudfront
      Via:
      - 1.1 ce4b35590464ed34415a13badd946ebb.cloudfront.net (CloudFront)
      X-Amz-Cf-Pop:
      - DEN50-C2
      X-Amz-Cf-Id:
      - yOSRdlZMMHIJLUtaET4U5zxFfyHMaJewEzdPEmjlGs9NnT8WL0eXjg==
    body:
      encoding: UTF-8
      string: '{"photos":{"page":1,"pages":35,"perpage":100,"total":"3479","photo":[{"id":"48323439591","owner":"154451654@N04","secret":"c891dcc76e","server":"65535","farm":66,"title":"Uptown
        Denver","ispublic":1,"isfriend":0,"isfamily":0},{"id":"48204924577","owner":"75688338@N00","secret":"dcec93a378","server":"65535","farm":66,"title":"07.04.19","ispublic":1,"isfriend":0,"isfamily":0},{"id":"48196393242","owner":"75688338@N00","secret":"583bec6eb2","server":"65535","farm":66,"title":"Denver
        Fireworks 2019","ispublic":1,"isfriend":0,"isfamily":0},{"id":"48196343956","owner":"75688338@N00","secret":"e8b76801fe","server":"65535","farm":66,"title":"Denver
        Fireworks 2019","ispublic":1,"isfriend":0,"isfamily":0},{"id":"48196392827","owner":"75688338@N00","secret":"5bbf99b071","server":"65535","farm":66,"title":"Denver
        Fireworks 2019","ispublic":1,"isfriend":0,"isfamily":0},{"id":"48196343426","owner":"75688338@N00","secret":"46f6dd403d","server":"65535","farm":66,"title":"Denver
        Fireworks 2019","ispublic":1,"isfriend":0,"isfamily":0},{"id":"48103979678","owner":"32145601@N05","secret":"aee2372385","server":"65535","farm":66,"title":"CAF
        TBM-3E Avenger BuNo 53503, NL53503","ispublic":1,"isfriend":0,"isfamily":0},{"id":"48005217046","owner":"15775662@N00","secret":"5907d421f6","server":"65535","farm":66,"title":"Denver
        2019, bikes in the snow 2","ispublic":1,"isfriend":0,"isfamily":0},{"id":"48005304787","owner":"15775662@N00","secret":"78bdc4f974","server":"65535","farm":66,"title":"Denver
        2019, bikes in the snow","ispublic":1,"isfriend":0,"isfamily":0},{"id":"47937362533","owner":"37033392@N06","secret":"ec3d8d8fbd","server":"65535","farm":66,"title":"Arriving
        at Union Station","ispublic":1,"isfriend":0,"isfamily":0},{"id":"47937339392","owner":"37033392@N06","secret":"a4741decdf","server":"65535","farm":66,"title":"Downtown
        Denver","ispublic":1,"isfriend":0,"isfamily":0},{"id":"46866692255","owner":"94523300@N07","secret":"1a82ce5ab4","server":"65535","farm":66,"title":"Tables
        and Chairs","ispublic":1,"isfriend":0,"isfamily":0},{"id":"40816805453","owner":"94523300@N07","secret":"662698043a","server":"65535","farm":66,"title":"Urban
        Climbing","ispublic":1,"isfriend":0,"isfamily":0},{"id":"33905985538","owner":"94523300@N07","secret":"8c331c8f17","server":"65535","farm":66,"title":"Ice
        House Building, Denver, CO","ispublic":1,"isfriend":0,"isfamily":0},{"id":"33841265018","owner":"35390579@N04","secret":"e622e9cfe3","server":"65535","farm":66,"title":"Day117_2019","ispublic":1,"isfriend":0,"isfamily":0},{"id":"33823599548","owner":"35390579@N04","secret":"eee1c4fc2a","server":"65535","farm":66,"title":"Day115_2019","ispublic":1,"isfriend":0,"isfamily":0},{"id":"40716811033","owner":"94523300@N07","secret":"f76be9a8d3","server":"65535","farm":66,"title":"Summer
        Stroll","ispublic":1,"isfriend":0,"isfamily":0},{"id":"40716810113","owner":"94523300@N07","secret":"e3ec61baf2","server":"65535","farm":66,"title":"Zen
        30","ispublic":1,"isfriend":0,"isfamily":0},{"id":"46767032335","owner":"94523300@N07","secret":"8625e98800","server":"65535","farm":66,"title":"Field
        Cull","ispublic":1,"isfriend":0,"isfamily":0},{"id":"40636562683","owner":"35390579@N04","secret":"05fc8163f2","server":"7801","farm":8,"title":"Adam_001","ispublic":1,"isfriend":0,"isfamily":0},{"id":"47455499272","owner":"94523300@N07","secret":"d352419375","server":"7837","farm":8,"title":"In
        and Out Of Service","ispublic":1,"isfriend":0,"isfamily":0},{"id":"46784494894","owner":"94523300@N07","secret":"2271e3bb72","server":"7842","farm":8,"title":"4036
        To Denver","ispublic":1,"isfriend":0,"isfamily":0},{"id":"32329200977","owner":"94523300@N07","secret":"352e06a219","server":"7872","farm":8,"title":"High
        Rise Lift","ispublic":1,"isfriend":0,"isfamily":0},{"id":"32329195767","owner":"94523300@N07","secret":"2f85802446","server":"7883","farm":8,"title":"Architecture
        Sweep and Fall","ispublic":1,"isfriend":0,"isfamily":0},{"id":"40306484913","owner":"94523300@N07","secret":"30505ac75d","server":"7821","farm":8,"title":"2
        Airport","ispublic":1,"isfriend":0,"isfamily":0},{"id":"40306479663","owner":"94523300@N07","secret":"f3d79d3b64","server":"7868","farm":8,"title":"One
        Track Mind","ispublic":1,"isfriend":0,"isfamily":0},{"id":"33377058358","owner":"37033392@N06","secret":"1be91e323c","server":"7921","farm":8,"title":"Downtown
        Denver","ispublic":1,"isfriend":0,"isfamily":0},{"id":"46297905855","owner":"45895316@N00","secret":"751b466ed8","server":"7863","farm":8,"title":"DSCN0046","ispublic":1,"isfriend":0,"isfamily":0},{"id":"47160221312","owner":"45895316@N00","secret":"d4270f7e1b","server":"7844","farm":8,"title":"DSCN0043","ispublic":1,"isfriend":0,"isfamily":0},{"id":"46374171684","owner":"56683178@N06","secret":"43657512eb","server":"7813","farm":8,"title":"Denver
        Union Station  Trackside View June, 1998","ispublic":1,"isfriend":0,"isfamily":0},{"id":"45912237795","owner":"19789693@N04","secret":"1f10c9079e","server":"4808","farm":5,"title":"","ispublic":1,"isfriend":0,"isfamily":0},{"id":"45524632675","owner":"148698145@N07","secret":"1be4da1bed","server":"7915","farm":8,"title":"UNION
        STATION","ispublic":1,"isfriend":0,"isfamily":0},{"id":"31486905318","owner":"66898813@N06","secret":"e0a3d94042","server":"1901","farm":2,"title":"Denver,
        CO | 2018.10.16 | RTD Rail by the Blue Bear","ispublic":1,"isfriend":0,"isfamily":0},{"id":"45318874241","owner":"7568929@N03","secret":"768b7aee6b","server":"1908","farm":2,"title":"Denver,
        Colorado. 8.23.18.","ispublic":1,"isfriend":0,"isfamily":0},{"id":"44255337385","owner":"56683178@N06","secret":"4bd41ccfcf","server":"1938","farm":2,"title":"BN
        2734 #597 at Prospect Jct.  Denver, CO April 27, 1986","ispublic":1,"isfriend":0,"isfamily":0},{"id":"48148080061","owner":"35390579@N04","secret":"78d0cd8974","server":"65535","farm":66,"title":"Day179_2019","ispublic":1,"isfriend":0,"isfamily":0},{"id":"48005229323","owner":"15775662@N00","secret":"096696de41","server":"65535","farm":66,"title":"Denver
        2019, Jeff and his dog Titan","ispublic":1,"isfriend":0,"isfamily":0},{"id":"48005304627","owner":"15775662@N00","secret":"3abbdbe7aa","server":"65535","farm":66,"title":"Denver
        2019, Jeff my old college roommate","ispublic":1,"isfriend":0,"isfamily":0},{"id":"48005229163","owner":"15775662@N00","secret":"d4ed049786","server":"65535","farm":66,"title":"Denver
        2019, Manitou Cliff Dwellings ruins","ispublic":1,"isfriend":0,"isfamily":0},{"id":"48005216551","owner":"15775662@N00","secret":"e7ae1c7c25","server":"65535","farm":66,"title":"Denver
        2019, Peterson AFB Museum, Fly-gurl Naomi","ispublic":1,"isfriend":0,"isfamily":0},{"id":"47939692181","owner":"37033392@N06","secret":"3575a0baa1","server":"65535","farm":66,"title":"Wewatta
        Street","ispublic":1,"isfriend":0,"isfamily":0},{"id":"47938303661","owner":"94523300@N07","secret":"2637fdff00","server":"65535","farm":66,"title":"Bustling
        Bridge","ispublic":1,"isfriend":0,"isfamily":0},{"id":"47938299156","owner":"94523300@N07","secret":"10866692c4","server":"65535","farm":66,"title":"Union
        Station, Denver, CO","ispublic":1,"isfriend":0,"isfamily":0},{"id":"47938282283","owner":"94523300@N07","secret":"9770fb9207","server":"65535","farm":66,"title":"Street
        Seating","ispublic":1,"isfriend":0,"isfamily":0},{"id":"46960631405","owner":"94523300@N07","secret":"57e48d341f","server":"65535","farm":66,"title":"Wall
        of Clouds Reflected","ispublic":1,"isfriend":0,"isfamily":0},{"id":"40910443713","owner":"94523300@N07","secret":"5d73e92ddb","server":"65535","farm":66,"title":"Arching
        The High Rise","ispublic":1,"isfriend":0,"isfamily":0},{"id":"40910441923","owner":"94523300@N07","secret":"32ce621cf0","server":"65535","farm":66,"title":"Urban
        View","ispublic":1,"isfriend":0,"isfamily":0},{"id":"33999602828","owner":"94523300@N07","secret":"b369e901b0","server":"65535","farm":66,"title":"Urban
        Cabling Reflected","ispublic":1,"isfriend":0,"isfamily":0},{"id":"47876892741","owner":"94523300@N07","secret":"d5d282b3f4","server":"65535","farm":66,"title":"Booths
        Before Gifts","ispublic":1,"isfriend":0,"isfamily":0},{"id":"46996201534","owner":"41383470@N00","secret":"ae446a343e","server":"65535","farm":66,"title":"St.
        John''s Cathedral. Denver, Colorado","ispublic":1,"isfriend":0,"isfamily":0},{"id":"46996194864","owner":"41383470@N00","secret":"7e34e99a69","server":"65535","farm":66,"title":"St.
        John''s Cathedral. Denver, Colorado","ispublic":1,"isfriend":0,"isfamily":0},{"id":"46866694875","owner":"94523300@N07","secret":"35c680e515","server":"65535","farm":66,"title":"Elevator
        To The Sky","ispublic":1,"isfriend":0,"isfamily":0},{"id":"40816803083","owner":"94523300@N07","secret":"49145ed08b","server":"65535","farm":66,"title":"Sky''s
        The Limit","ispublic":1,"isfriend":0,"isfamily":0},{"id":"47727048951","owner":"94523300@N07","secret":"e5feed1a45","server":"65535","farm":66,"title":"Higb
        Rising, Low Sitting","ispublic":1,"isfriend":0,"isfamily":0},{"id":"47727047151","owner":"94523300@N07","secret":"facfe9e866","server":"65535","farm":66,"title":"Urban
        Crest","ispublic":1,"isfriend":0,"isfamily":0},{"id":"47727045161","owner":"94523300@N07","secret":"46602b48c3","server":"65535","farm":66,"title":"High
        Strung Urban Jungle","ispublic":1,"isfriend":0,"isfamily":0},{"id":"47673969372","owner":"94523300@N07","secret":"a724954497","server":"65535","farm":66,"title":"Canopy
        Shelter","ispublic":1,"isfriend":0,"isfamily":0},{"id":"47673966752","owner":"94523300@N07","secret":"e67957ae32","server":"65535","farm":66,"title":"Blinded
        By Urban Patterns","ispublic":1,"isfriend":0,"isfamily":0},{"id":"46767033395","owner":"94523300@N07","secret":"f449a54728","server":"65535","farm":66,"title":"Urban
        Walk","ispublic":1,"isfriend":0,"isfamily":0},{"id":"32739922827","owner":"94523300@N07","secret":"e0ff2911c6","server":"65535","farm":66,"title":"Being
        Coloradan Exhibit","ispublic":1,"isfriend":0,"isfamily":0},{"id":"47602999131","owner":"35390579@N04","secret":"f95d4abd4e","server":"7897","farm":8,"title":"Adam_002","ispublic":1,"isfriend":0,"isfamily":0},{"id":"40636562393","owner":"35390579@N04","secret":"b405abf723","server":"7864","farm":8,"title":"Adam_003","ispublic":1,"isfriend":0,"isfamily":0},{"id":"47602998851","owner":"35390579@N04","secret":"f26d5fb4b5","server":"7803","farm":8,"title":"Adam_004","ispublic":1,"isfriend":0,"isfamily":0},{"id":"40636562193","owner":"35390579@N04","secret":"a6f0a48086","server":"7901","farm":8,"title":"Adam_005","ispublic":1,"isfriend":0,"isfamily":0},{"id":"47602998491","owner":"35390579@N04","secret":"843f7fc8bd","server":"7925","farm":8,"title":"Adam_006","ispublic":1,"isfriend":0,"isfamily":0},{"id":"40636561963","owner":"35390579@N04","secret":"49f582579f","server":"7911","farm":8,"title":"Adam_007","ispublic":1,"isfriend":0,"isfamily":0},{"id":"47602998041","owner":"35390579@N04","secret":"04e3b86392","server":"7846","farm":8,"title":"Adam_008","ispublic":1,"isfriend":0,"isfamily":0},{"id":"40636561693","owner":"35390579@N04","secret":"b356fbd2d5","server":"7824","farm":8,"title":"Adam_009","ispublic":1,"isfriend":0,"isfamily":0},{"id":"40636561563","owner":"35390579@N04","secret":"42fa8ef2ac","server":"7879","farm":8,"title":"Adam_011","ispublic":1,"isfriend":0,"isfamily":0},{"id":"47602997351","owner":"35390579@N04","secret":"861d46e0ce","server":"7877","farm":8,"title":"Adam_012","ispublic":1,"isfriend":0,"isfamily":0},{"id":"40636561323","owner":"35390579@N04","secret":"c69856e16a","server":"7817","farm":8,"title":"Adam_013","ispublic":1,"isfriend":0,"isfamily":0},{"id":"47602997101","owner":"35390579@N04","secret":"83cf3554a8","server":"7884","farm":8,"title":"Adam_014","ispublic":1,"isfriend":0,"isfamily":0},{"id":"40636561183","owner":"35390579@N04","secret":"ae8e603830","server":"7898","farm":8,"title":"Adam_015","ispublic":1,"isfriend":0,"isfamily":0},{"id":"47602996921","owner":"35390579@N04","secret":"ee9b130838","server":"7855","farm":8,"title":"Adam_016","ispublic":1,"isfriend":0,"isfamily":0},{"id":"40636560983","owner":"35390579@N04","secret":"5b0cf0c294","server":"7844","farm":8,"title":"Adam_017","ispublic":1,"isfriend":0,"isfamily":0},{"id":"33725826238","owner":"35390579@N04","secret":"b17ac6904f","server":"7924","farm":8,"title":"Adam_018","ispublic":1,"isfriend":0,"isfamily":0},{"id":"47455497102","owner":"94523300@N07","secret":"5c2fd17177","server":"7811","farm":8,"title":"Stroll
        R","ispublic":1,"isfriend":0,"isfamily":0},{"id":"46784497684","owner":"94523300@N07","secret":"ef088d2139","server":"7808","farm":8,"title":"Captured
        Patterns","ispublic":1,"isfriend":0,"isfamily":0},{"id":"46784490534","owner":"94523300@N07","secret":"e6c2fb3313","server":"7896","farm":8,"title":"Tracking
        The Shot","ispublic":1,"isfriend":0,"isfamily":0},{"id":"46480365825","owner":"94523300@N07","secret":"eab2b39f6d","server":"7894","farm":8,"title":"Amtrak
        Lounge","ispublic":1,"isfriend":0,"isfamily":0},{"id":"46672223864","owner":"94523300@N07","secret":"51d74eae77","server":"7912","farm":8,"title":"Terminal
        Bar Well Lit","ispublic":1,"isfriend":0,"isfamily":0},{"id":"46672218144","owner":"94523300@N07","secret":"f32bf41468","server":"4868","farm":5,"title":"Who
        Dat Down The Line?","ispublic":1,"isfriend":0,"isfamily":0},{"id":"32453568377","owner":"94523300@N07","secret":"4559c880f2","server":"7893","farm":8,"title":"Curbside
        Reading in Red","ispublic":1,"isfriend":0,"isfamily":0},{"id":"32453562267","owner":"94523300@N07","secret":"ac7a9cc971","server":"7817","farm":8,"title":"Stacked
        Arches","ispublic":1,"isfriend":0,"isfamily":0},{"id":"32329191087","owner":"94523300@N07","secret":"3940843d5a","server":"7863","farm":8,"title":"Sweeping
        Rail Station Architecture","ispublic":1,"isfriend":0,"isfamily":0},{"id":"46297918495","owner":"45895316@N00","secret":"640d450d66","server":"7891","farm":8,"title":"DSCN0051","ispublic":1,"isfriend":0,"isfamily":0},{"id":"45524633175","owner":"148698145@N07","secret":"cf00ae3359","server":"7910","farm":8,"title":"IMG_3755
        b&w","ispublic":1,"isfriend":0,"isfamily":0},{"id":"44620427030","owner":"148698145@N07","secret":"4ceb441b17","server":"7851","farm":8,"title":"HUGS,
        ANYONE?","ispublic":1,"isfriend":0,"isfamily":0},{"id":"45019001294","owner":"66898813@N06","secret":"fc80a36fa1","server":"4830","farm":5,"title":"Denver
        Botanic Garden | 2018.11.04 | Migrating Monarchs","ispublic":1,"isfriend":0,"isfamily":0},{"id":"30422434927","owner":"66898813@N06","secret":"58f3a00682","server":"1979","farm":2,"title":"2018-10-16_07-24-56","ispublic":1,"isfriend":0,"isfamily":0},{"id":"44448058525","owner":"66898813@N06","secret":"62b03b83d7","server":"1977","farm":2,"title":"Denver,
        CO | 20018.10.02 | Union Station lit up for October","ispublic":1,"isfriend":0,"isfamily":0},{"id":"30422386247","owner":"66898813@N06","secret":"98687d8fd1","server":"1932","farm":2,"title":"Denver,
        CO | 2018.09.21 | Time for an adventure","ispublic":1,"isfriend":0,"isfamily":0},{"id":"43546195460","owner":"66898813@N06","secret":"1816cc12d4","server":"1920","farm":2,"title":"Denver,
        CO | 2018-10-16 | Tree sock in downtown Denver","ispublic":1,"isfriend":0,"isfamily":0},{"id":"45311539132","owner":"66898813@N06","secret":"35a0100d5c","server":"1913","farm":2,"title":"2018-10-16_07-20-50","ispublic":1,"isfriend":0,"isfamily":0},{"id":"30130619637","owner":"66898813@N06","secret":"2117a0b4c2","server":"1957","farm":2,"title":"DBG
        | 2017.02.12 | 0212171327a_HDR","ispublic":1,"isfriend":0,"isfamily":0},{"id":"43254880780","owner":"66898813@N06","secret":"407d62dbb6","server":"1937","farm":2,"title":"DBG
        | 2017.02.12 | 0212171329_HDR","ispublic":1,"isfriend":0,"isfamily":0},{"id":"30130612937","owner":"66898813@N06","secret":"04d02fed94","server":"1926","farm":2,"title":"DBG
        | 2017.02.12 | 0212171331_HDR","ispublic":1,"isfriend":0,"isfamily":0},{"id":"43254877190","owner":"66898813@N06","secret":"a2e4794c30","server":"1976","farm":2,"title":"DBG
        | 2017.02.12 | 0212171331a_HDR","ispublic":1,"isfriend":0,"isfamily":0},{"id":"45067141711","owner":"66898813@N06","secret":"26b06cb721","server":"1916","farm":2,"title":"DBG
        | 2017.02.12 | 0212171331b_HDR","ispublic":1,"isfriend":0,"isfamily":0},{"id":"45067139351","owner":"66898813@N06","secret":"6a6212edb5","server":"1920","farm":2,"title":"DBG
        | 2017.02.12 | 0212171331c_HDR","ispublic":1,"isfriend":0,"isfamily":0}]},"stat":"ok"}'
    http_version: 
  recorded_at: Wed, 31 Jul 2019 16:11:55 GMT
recorded_with: VCR 5.0.0
